…
2.  We are going to fill the missing values by replacing each of them with the mean number of steps for the corresponding interval, averaged across all days for which values exist.  We first construct a new table `filldata` (shown below) which calculates the mean number of steps for each interval.


```r
filldata<- actdata %>%
  group_by(interval) %>%
  summarise(interval.mean.steps=mean(steps,na.rm=TRUE))
```


```
## # A tibble: 288 x 2
##    interval interval.mean.steps
##       <int>               <dbl>
##  1        0              1.72  
##  2        5              0.340 
##  3       10              0.132 
##  4       15              0.151 
##  5       20              0.0755
##  6       25              2.09  
##  7       30              0.528 
##  8       35              0.868 
##  9       40              0     
## 10       45              1.47  
## # ... with 278 more rows
```
…
We then group the data by both `interval` and `wend` and calculate the mean number of steps for each interval during both weekdays and weekends.  Note that here we are using the filled-in missing values.


```r
byintervalweekdays <-actdata %>%
          group_by(interval,wend) %>%
          summarise(mean.steps = mean(filledsteps))
byintervalweekdays
```

```
## # A tibble: 576 x 3
## # Groups:   interval [?]
##    interval wend    mean.steps
##       <int> <fct>        <dbl>
##  1        0 weekday    2.25   
##  2        0 weekend    0.215  
##  3        5 weekday    0.445  
##  4        5 weekend    0.0425 
##  5       10 weekday    0.173  
##  6       10 weekend    0.0165 
##  7       15 weekday    0.198  
##  8       15 weekend    0.0189 
##  9       20 weekday    0.0990 
## 10       20 weekend    0.00943
## # ... with 566 more rows
```
…
